…
```r
coldata
```

```
## # A tibble: 24 x 4
##           run    id condition treatment
##         <chr> <chr>     <chr>     <chr>
##  1 SRR1565944   s21       non   Vehicle
##  2 SRR1565945   s23       non   Vehicle
##  3 SRR1565946   s20       non   Vehicle
##  4 SRR1565947   s22       non   Vehicle
##  5 SRR1565948   s11       non   Vehicle
##  6 SRR1565949   s30       non   Vehicle
##  7 SRR1565943   s21       non     HRV16
##  8 SRR1565939   s23       non     HRV16
##  9 SRR1565940   s20       non     HRV16
## 10 SRR1565942   s22       non     HRV16
## # ... with 14 more rows
```
…
